{
  "type": "service_account",
  "project_id": "one-time-password-bf6b2",
  "private_key_id": "bee16c82a8d566fbd4a83596213f1b0bd9f0af2c",
  "private_key": "-----BEGIN PRIVATE KEY-----\nMIIEvQIBADANBgkqhkiG9w0BAQEFAASCBKcwggSjAgEAAoIBAQDAGnQEJe1/036a\nG0gbaxPwwyB6Ilfb1qSslWCj5ZBPQrLJr1S8OKifOVm2C4mgWGRx5qOwPv8zgoKU\nP+MpKNnj2+7YnLPkoPRoCNCBjWTK1WWDh91uw96VEGBrSmEr/b9DmfctmD79wYJZ\nr0Zq1Ji8Bkglj+TBw8faP5wsicNO8C3LpSNxQImz15QhjSx9ekOvprlsmU99sWM4\n7PBBD28hsSqgn95tVo5m1bT2fzRD7a8v8BnC1BQuNxwCtwYaHDyGfrqhyAzYA3uH\n/oCwTxXwSNvnNua9aAL4my1iLk1p1yfQFyYiwifs+1qOowDqbX+jABt2w4bHBIWx\nx4WxL5mRAgMBAAECggEACQSg5EI1zNO0UHaWByv629lEJrmioVxJXxz01ELaSD9B\nwoItppecElv0Tj2Kyp1Fq1tr/SHK9AuFFuGsJ74uQuIr620pTIMCEDl0NNW6+OLl\nTOQ5mNne8sVZ2mWLq9+RzVIOsowwblQJiw1lb03PRPngRIuljfNTeCdW7PgTZCrh\nKa00qjM7vD0HCsUDffIzmrwtEdxfBiDucrXsL6I3FECExQ1/MGujgoPmCWYmSDlb\nUNHoKRvZj1gyTtX7C+TYe6RDT9OX6FXb/XV1c1EWBLPzvPMgkY6WK9+HJGBf4ucR\nr8BKZ5gi95WsA/AxUUrvIMXf0nxwjbu4TmEN1Wj4QQKBgQD6G89HQeuP+Aj/kvfg\nO1DGZR98fPLHRUu4Q9LIy1swGSqWt+aQJaKn/kykT43hYHhSUGCNcPsPfpoeX/6y\nCB1Rvqif7H4HrkmqsWNB4TIvBgiVqmsELKxjNiiQcRpBBCwojeTcBFJyF5dHt6zK\nVwWwrOZ1R/2BduUrXt23isShQQKBgQDEoN0GLV/kSzpxkDd9AyamoCoHNKA7vXqv\n/tKM40YHESvfQ+JK3sN4pFGfSlyM7BcehiofTEw9R0iFKn/hYEd0fmobbcXmZvDY\n+LoHtNob0/gK9W3klAm5MaLA+sAEEuto3eDrEQftUOjPki/sgouEaLIHjLtggxd4\neqsBfP+UUQKBgQCoXgw9dfzz4A9+rRs80fFgfTajASIWT2nX06CUF4F9cZOf/pCx\nvQQwfxptCjkC3YRiNUWqMcJw/dMWW50DkD7chrLRZcy5svRYei3NbaHw0ej5h82e\n88vgxdas1dbMqdhoPI0yJ56wu3zVhKpHVCm6c8p4bUwU2UsQ1T4AjuQrgQKBgClo\nGsNXQM9JjEgn75dy12vVZKRZz7hk4XY4ekxS/Ac29X8xw3Cy0oUQTWP2++BtQz0Z\nUbt/jLqGzV3FomJqrQF6MYwPJNKtMODwF/TRf/DGRYDBSGAPULDgI/7xjwgMl+hg\neSHnVz0BgdVcWp06rHi4t2zhlP/w+ztS0bohgYzRAoGATtAfobzWnEBSptcsB+vO\nUbyiwXBYwInLhVrcEwrU4KGokcctjGIeOA5g22W9tphATSc//Dhrx2vv96Az9fFP\nYxemh6U3goqUSHCPC1I8kypT1q7K5mBNZD43hKWfi55gQsyerswNkHkozWNvxzfA\nDHjjbXEmqhMS3gWnzopmdd4=\n-----END PRIVATE KEY-----\n",
  "client_email": "firebase-adminsdk-h00dc@one-time-password-bf6b2.iam.gserviceaccount.com",
  "client_id": "113484939407250542161",
  "auth_uri": "https://accounts.google.com/o/oauth2/auth",
  "token_uri": "https://accounts.google.com/o/oauth2/token",
  "auth_provider_x509_cert_url": "https://www.googleapis.com/oauth2/v1/certs",
  "client_x509_cert_url": "https://www.googleapis.com/robot/v1/metadata/x509/firebase-adminsdk-h00dc%40one-time-password-bf6b2.iam.gserviceaccount.com"
}
